division_code,aggregate,name,parent,消費税不可?,description
表示順,集計科目?,,,不可のとき1 ●列を追加,
D100,●,総合計,☆,,
D200,●,青色申告の対象業務,D100,,貸借対照表は事業所得、不動産所得、山林所得部門で合併してつくる
D210,●,[集計] 不動産所得 (貸付),D200,,
D211,,不動産(貸付),D210,,
D220,●,[集計] 事業所得_一般,D200,,
D230,,事業_一般,D220,,
D240,,事業_製造部門,D220,,
D250,●,[集計] 事業所得_農業,D200,,
D251,,事業_農業,D250,,
D260,●,[集計] 山林所得 (譲渡),D200,,青色申告の対象。
D261,,山林所得,D260,,
D310,,その他の申告所得,D100,1,B/Sなし
#,,,,,
D700,●,[集計] 非業務 (生活),D100,1,
D710,,非業務 (生活),D700,1,
